counters/asyn_down_counter.vcd
$date
	Mon Oct 27 08:43:34 2025
$end
$version
	Icarus Verilog
$end
$timescale
	1s
$end
$scope module asyn_downtb $end
$var wire 4 ! qbar [3:0] $end
$var wire 4 " q [3:0] $end
$var reg 1 # clk $end
$var reg 1 $ clr $end
$var reg 1 % pre $end
$scope module uut $end
$var wire 1 # clk $end
$var wire 1 $ clr $end
$var wire 1 % pre $end
$var wire 4 & qbar [3:0] $end
$var wire 4 ' q [3:0] $end
$scope module t0 $end
$var wire 1 # clk $end
$var wire 1 $ clr $end
$var wire 1 % pre $end
$var wire 1 ( qbar $end
$var wire 1 ) t $end
$var reg 1 * q $end
$upscope $end
$scope module t1 $end
$var wire 1 + clk $end
$var wire 1 $ clr $end
$var wire 1 % pre $end
$var wire 1 , qbar $end
$var wire 1 - t $end
$var reg 1 . q $end
$upscope $end
$scope module t2 $end
$var wire 1 / clk $end
$var wire 1 $ clr $end
$var wire 1 % pre $end
$var wire 1 0 qbar $end
$var wire 1 1 t $end
$var reg 1 2 q $end
$upscope $end
$scope module t3 $end
$var wire 1 3 clk $end
$var wire 1 $ clr $end
$var wire 1 % pre $end
$var wire 1 4 qbar $end
$var wire 1 5 t $end
$var reg 1 6 q $end
$upscope $end
$upscope $end
$upscope $end
$enddefinitions $end
$comment Show the parameter values. $end
$dumpall
$end
#0
$dumpvars
06
15
14
03
02
11
10
0/
0.
1-
1,
0+
0*
1)
1(
b0 '
b1111 &
0%
1$
0#
b0 "
b1111 !
$end
#5
1#
#10
0#
0$
#15
04
16
00
13
12
0,
1/
1.
b0 !
b0 &
0(
1+
b1111 "
b1111 '
1*
1#
#20
0#
#25
b1 !
b1 &
1(
0+
b1110 "
b1110 '
0*
1#
#30
0#
#35
1,
0/
0.
b10 !
b10 &
0(
1+
b1101 "
b1101 '
1*
1#
#40
0#
#45
b11 !
b11 &
1(
0+
b1100 "
b1100 '
0*
1#
#50
0#
#55
10
03
02
0,
1/
1.
b100 !
b100 &
0(
1+
b1011 "
b1011 '
1*
1#
#60
0#
#65
b101 !
b101 &
1(
0+
b1010 "
b1010 '
0*
1#
#70
0#
#75
1,
0/
0.
b110 !
b110 &
0(
1+
b1001 "
b1001 '
1*
1#
#80
0#
#85
b111 !
b111 &
1(
0+
b1000 "
b1000 '
0*
1#
#90
0#
#95
14
06
00
13
12
0,
1/
1.
b1000 !
b1000 &
0(
1+
b111 "
b111 '
1*
1#
#100
0#
#105
b1001 !
b1001 &
1(
0+
b110 "
b110 '
0*
1#
#110
0#
#115
1,
0/
0.
b1010 !
b1010 &
0(
1+
b101 "
b101 '
1*
1#
#120
0#
#125
b1011 !
b1011 &
1(
0+
b100 "
b100 '
0*
1#
#130
0#
#135
10
03
02
0,
1/
1.
b1100 !
b1100 &
0(
1+
b11 "
b11 '
1*
1#
#140
0#
#145
b1101 !
b1101 &
1(
0+
b10 "
b10 '
0*
1#
#150
0#
#155
1,
0/
0.
b1110 !
b1110 &
0(
1+
b1 "
b1 '
1*
1#
#160
0#
#165
b1111 !
b1111 &
1(
0+
b0 "
b0 '
0*
1#
#170
0#
#175
04
16
00
13
12
0,
1/
1.
b0 !
b0 &
0(
1+
b1111 "
b1111 '
1*
1#
#180
0#
#185
b1 !
b1 &
1(
0+
b1110 "
b1110 '
0*
1#
#190
0#
#195
1,
0/
0.
b10 !
b10 &
0(
1+
b1101 "
b1101 '
1*
1#
#200
0#
#205
b11 !
b11 &
1(
0+
b1100 "
b1100 '
0*
1#
